…
How many distinct stations are there?

``` r
trans_ent |> 
  select(station_name, line) |> 
  distinct()
## # A tibble: 465 × 2
##    station_name             line    
##    <chr>                    <chr>   
##  1 25th St                  4 Avenue
##  2 36th St                  4 Avenue
##  3 45th St                  4 Avenue
##  4 53rd St                  4 Avenue
##  5 59th St                  4 Avenue
##  6 77th St                  4 Avenue
##  7 86th St                  4 Avenue
##  8 95th St                  4 Avenue
##  9 9th St                   4 Avenue
## 10 Atlantic Av-Barclays Ctr 4 Avenue
## # ℹ 455 more rows
```
…
